{"name":"Juli","gender":"female","age":59,"wt":125,"eye":"green"}
{"name":"Mark","gender":"male","age":58,"wt":185,"eye":"brown"}
{"name":"Holly","gender":"female","age":25,"wt":135,"eye":"hazel"}
{"name":"Drew","gender":"male","age":29,"wt":180,"eye":"brown"}